{"count":22,"page":1,"page_size":10,"total_pages":3,"incidents":[{"id":"11cd7a64","title":"Mail servers offline","date":"2021-10-26T14:03:19.059Z","modified":"2021-11-09T22:04:39.432Z","scheduled":null,"severity":"under-maintenance","affectedsystems":["mail"],"resolved":false,"content":"<p>Effective immediately, TJ's mail servers will be offline until further notice in order to comply with a request from FCPS. If you would like to contact the Sysadmins, please email Shreyas at smayya337@gmail.com and Lauren at pmd7211@gmail.com. We apologize for the inconvenience and thank you for your cooperation.</p>\n<!--- language code: en -->\n"},{"id":"77822711","title":"Rack Down","date":"2021-10-07T14:57:57.420Z","modified":"2021-11-09T22:04:39.432Z","scheduled":null,"severity":"major-outage","affectedsystems":["ion","director","mail","ras","cluster","storage","auth"],"resolved":true,"content":"<p>A UPS failure at approximately 9:26 this morning caused a server rack to shut down. Most servers have recovered, but some are still experiencing issues, including crucial portions of our infrastructure. We are working to resolve the issue.</p>\n<!--- language code: en -->\n"},{"id":"0d144f54","title":"Major Outage","date":"2021-09-19T07:30:00.000Z","modified":"2021-09-23T20:35:00.000Z","scheduled":null,"severity":"major-outage","affectedsystems":["director","cluster"],"resolved":true,"content":"<p>Due to power issues, these services and the sites that run on them including all student sites and JupyterHub are unaccessable.</p>\n<!--- language code: en -->\n"},{"id":"6c8e0302","title":"Mail services experiencing outages","date":"2021-08-25T04:03:02.888Z","modified":"2021-11-09T22:04:39.430Z","scheduled":null,"severity":"partial-outage","affectedsystems":["mail"],"resolved":true,"content":"<p>Users are reporting trouble using a variety of mail-related services, including accessing the webmail, checking mail through third-party clients, and setting up email forwarding.</p>\n<!--- language code: en -->\n"},{"id":"e2f9064c","title":"Unexpected server downtime","date":"2021-08-17T13:37:44.813Z","modified":"2021-08-18T15:35:57.321Z","scheduled":null,"severity":"partial-outage","affectedsystems":["director","ras","cluster"],"resolved":true,"content":"<p>There was unexpected server downtime last night. We apologize for the inconvenience.</p>\n<!--- language code: en -->\n"},{"id":"20771654","title":"Mailserver maintenance","date":"2021-08-05T12:33:47.227Z","modified":"2021-08-18T15:35:51.636Z","scheduled":"2021-08-05T12:33:47.227Z","duration":1440,"severity":"under-maintenance","affectedsystems":["mail"],"resolved":true,"content":"<p>The authentication backend for mailservers is currently under maintenance</p>\n<!--- language code: en -->\n"},{"id":"e4048644","title":"DNS outage","date":"2021-08-02T15:28:59.868Z","modified":"2021-08-03T13:01:06.398Z","scheduled":null,"severity":"major-outage","affectedsystems":["ion","director","mail","ras"],"resolved":true,"content":"<p>We are aware that some DNS servers are not resolving the TJ nameservers properly leading to CSL services not loading.</p>\n<!--- language code: en -->\n"},{"id":"77a898d0","title":"Director down","date":"2021-06-04T22:33:44.141Z","modified":"2021-06-04T22:38:41.059Z","scheduled":null,"severity":"partial-outage","affectedsystems":["director"],"resolved":true,"content":"<p>Director is down.</p>\n<!--- language code: en -->\n"},{"id":"0b9af39a","title":"Ion loading slowly","date":"2021-05-07T19:30:37.038Z","modified":"2021-05-08T16:28:40.253Z","scheduled":null,"severity":"degraded-performance","affectedsystems":["ion"],"resolved":true,"content":"<p>Ion is currently experiencing slow load times. We believe this to be linked to backend storage issues.</p>\n<!--- language code: en -->\n"},{"id":"3b68c9ad","title":"Elevated error rates","date":"2021-05-04T17:45:05.738Z","modified":"2021-05-08T16:29:06.307Z","scheduled":null,"severity":"degraded-performance","affectedsystems":["ion","director"],"resolved":true,"content":"<p>We are investigating elevated error rates (500s on Ion, error 28 on Director mentioning no free space available).</p>\n<div class=\"update-block\">\n          <div class=\"update-block-date\">2021-05-05T02:58:00.000Z</div>\n          <div class=\"update-block-content\">\n            <div class=\"update-block-title\">Temporary fix</div>\n            <div class=\"update-block-body\">\n<p>The cause of this issue has been discovered. A temporary fix has been implemented. We are working on a permanent fix.</p>\n</div></div></div>\n<!--- language code: en -->\n"}]}