{"count":21,"page":3,"page_size":10,"total_pages":3,"incidents":[{"id":"baaa7c3a","title":"Storage Cluster Upgrades","date":"2020-12-19T21:55:50.249Z","modified":"2021-01-04T23:07:21.302Z","scheduled":"2020-12-18T21:00:00.000Z","duration":20160,"severity":"under-maintenance","affectedsystems":["ion","director","mail","cluster","storage"],"resolved":true,"content":"<p>An upgrade of our storage cluster will be performed over Winter Break. Some slowdowns or periods of interruption is expected.</p>\n<!--- language code: en -->\n"}]}