{"count":22,"page":2,"page_size":10,"total_pages":3,"incidents":[{"id":"41efe138","title":"Storage backend upgrades","date":"2021-03-26T21:53:51.023Z","modified":"2021-11-19T20:04:54.793Z","scheduled":"2021-03-26T21:53:51.023Z","duration":14400,"severity":"under-maintenance","affectedsystems":["storage"],"resolved":true,"content":"<p>An upgrade to our storage backend will be performed over Spring break. There may be some intermittent periods of time when files stored on the CSL are inaccessible.</p>\n<!--- language code: en -->\n"},{"id":"e3e25a92","title":"Ion inaccessible","date":"2021-03-23T02:10:42.528Z","modified":"2021-03-23T14:15:36.022Z","scheduled":null,"severity":"partial-outage","affectedsystems":["ion"],"resolved":true,"content":"<p>In certain cases, Ion may be inaccessible.</p>\n<div class=\"update-block\">\n          <div class=\"update-block-date\">2021-03-23T02:22:58.210Z</div>\n          <div class=\"update-block-content\">\n            <div class=\"update-block-title\">Monitoring</div>\n            <div class=\"update-block-body\">\n<p>A fix has been implemented and we are monitoring for any additional problems that may arise.</p>\n</div></div></div>\n<div class=\"update-block\">\n          <div class=\"update-block-date\">2021-03-23T14:15:36.022Z</div>\n          <div class=\"update-block-content\">\n            <div class=\"update-block-title\">Resolved</div>\n            <div class=\"update-block-body\">\n<p>This incident has been resolved.</p>\n</div></div></div>\n<!--- language code: en -->\n"},{"id":"efb2bd80","title":"Storage cluster outage","date":"2021-03-22T13:54:25.938Z","modified":"2021-03-22T14:08:19.119Z","scheduled":null,"severity":"major-outage","affectedsystems":["ion","director","mail","storage"],"resolved":true,"content":"<p>There is an outage on our storage cluster.</p>\n<div class=\"update-block\">\n          <div class=\"update-block-date\">2021-03-22T14:08:19.119Z</div>\n          <div class=\"update-block-content\">\n            <div class=\"update-block-title\">Resolved</div>\n            <div class=\"update-block-body\">\n<p>This incident has been resolved.</p>\n</div></div></div>\n<!--- language code: en -->\n"},{"id":"a41c563a","title":"Ion maintenance","date":"2021-02-24T23:42:46.905Z","modified":"2021-02-25T13:31:29.754Z","scheduled":"2021-02-24T23:00:00.000Z","duration":300,"severity":"under-maintenance","affectedsystems":["ion"],"resolved":true,"content":"<p>Ion is under maintenance and may be inaccessible at certain times.</p>\n<div class=\"update-block\">\n          <div class=\"update-block-date\">2021-02-25T03:00:00.000Z</div>\n          <div class=\"update-block-content\">\n            <div class=\"update-block-title\">Maintenance concluded</div>\n            <div class=\"update-block-body\">\n<p>Maintenance has concluded.</p>\n</div></div></div>\n<!--- language code: en -->\n"},{"id":"6dd182ac","title":"Director management page not accessible","date":"2021-02-13T00:01:03.389Z","modified":"2021-02-13T00:06:39.038Z","scheduled":null,"severity":"partial-outage","affectedsystems":["director"],"resolved":true,"content":"<p>The Director management page may not be accessible.</p>\n<p>::: Resolved | 2021-02-13T00:06:39.038Z\nThis issue has been resolved.\n:::</p>\n<!--- language code: en -->\n"},{"id":"1fdda894","title":"Director inaccessible","date":"2021-02-12T22:13:44.793Z","modified":"2021-02-12T22:19:44.819Z","scheduled":null,"severity":"partial-outage","affectedsystems":["director"],"resolved":true,"content":"<p>Director may be inaccessible at this time. We are looking into the issue.</p>\n<div class=\"update-block\">\n          <div class=\"update-block-date\">2021-02-12T22:19:14.819Z</div>\n          <div class=\"update-block-content\">\n            <div class=\"update-block-title\">Resolved</div>\n            <div class=\"update-block-body\">\n<p>This issue has been resolved.</p>\n</div></div></div>\n<!--- language code: en -->\n"},{"id":"0765f916","title":"Cluster maintenance","date":"2021-01-30T04:32:49.468Z","modified":"2021-01-30T20:35:31.374Z","scheduled":null,"severity":"under-maintenance","affectedsystems":["cluster"],"resolved":true,"content":"<p>The cluster may be inaccessible for a short period of time while maintenance is being conducted.</p>\n<!--- language code: en -->\n"},{"id":"58f4c7fe","title":"Sending mail to @fcps.edu emails may not work","date":"2021-01-21T15:19:15.807Z","modified":"2021-01-24T15:50:49.608Z","scheduled":null,"severity":"partial-outage","affectedsystems":["mail"],"resolved":true,"content":"<p>Sending mail to @fcps.edu emails may result in a &quot;Your access to submit messages to this e-mail system has been restricted&quot; message.</p>\n<!--- language code: en -->\n"},{"id":"6a2658cc","title":"Director degraded performance","date":"2021-01-17T23:25:19.005Z","modified":"2021-01-17T23:37:00.782Z","scheduled":null,"severity":"degraded-performance","affectedsystems":["director"],"resolved":true,"content":"<p>Director may be laggy or slow during this time. We are looking into the issue.</p>\n<!--- language code: en -->\n"},{"id":"570cd1dd","title":"Temporary Cluster outage","date":"2021-01-05T01:36:38.720Z","modified":"2021-01-05T01:39:52.388Z","scheduled":null,"severity":"major-outage","affectedsystems":["cluster"],"resolved":true,"content":"<p>Launching jobs using Slurm or using Jupyterhub may fail.</p>\n<!--- language code: en -->\n"}]}