{"count":8,"page":1,"page_size":3,"total_pages":3,"periods":[{"id":"2021-9","incidents":[{"id":"0d144f54","title":"Major Outage","date":"2021-09-19T07:30:00.000Z","modified":"2021-09-23T20:35:00.000Z","scheduled":null,"severity":"major-outage","affectedsystems":["director","cluster"],"resolved":true,"content":"<p>Due to power issues, these services and the sites that run on them including all student sites and JupyterHub are unaccessable.</p>\n<!--- language code: en -->\n"}],"order":1,"count":1},{"id":"2021-8","incidents":[{"id":"6c8e0302","title":"Mail services experiencing outages","date":"2021-08-25T04:03:02.888Z","modified":"2021-09-24T08:04:48.793Z","scheduled":null,"severity":"partial-outage","affectedsystems":["mail"],"resolved":false,"content":"<p>Users are reporting trouble using a variety of mail-related services, including accessing the webmail, checking mail through third-party clients, and setting up email forwarding.</p>\n<!--- language code: en -->\n"},{"id":"e2f9064c","title":"Unexpected server downtime","date":"2021-08-17T13:37:44.813Z","modified":"2021-08-18T15:35:57.321Z","scheduled":null,"severity":"partial-outage","affectedsystems":["director","ras","cluster"],"resolved":true,"content":"<p>There was unexpected server downtime last night. We apologize for the inconvenience.</p>\n<!--- language code: en -->\n"},{"id":"20771654","title":"Mailserver maintenance","date":"2021-08-05T12:33:47.227Z","modified":"2021-08-18T15:35:51.636Z","scheduled":"2021-08-05T12:33:47.227Z","duration":1440,"severity":"under-maintenance","affectedsystems":["mail"],"resolved":true,"content":"<p>The authentication backend for mailservers is currently under maintenance</p>\n<!--- language code: en -->\n"},{"id":"e4048644","title":"DNS outage","date":"2021-08-02T15:28:59.868Z","modified":"2021-08-03T13:01:06.398Z","scheduled":null,"severity":"major-outage","affectedsystems":["ion","director","mail","ras"],"resolved":true,"content":"<p>We are aware that some DNS servers are not resolving the TJ nameservers properly leading to CSL services not loading.</p>\n<!--- language code: en -->\n"}],"order":2,"count":4},{"id":"2021-6","incidents":[{"id":"77a898d0","title":"Director down","date":"2021-06-04T22:33:44.141Z","modified":"2021-06-04T22:38:41.059Z","scheduled":null,"severity":"partial-outage","affectedsystems":["director"],"resolved":true,"content":"<p>Director is down.</p>\n<!--- language code: en -->\n"}],"order":4,"count":1}]}